Project1_final
…
#I want to see the time gap between the patients' smoking history and the time they were diagnosed with prostate cancer.
finaldataset%>%select(icgc_donor_id,tobacco_smoking_history_indicator,donor_age_at_diagnosis)%>%glimpse()

## Rows: 186
## Columns: 3
## $ icgc_donor_id                     <chr> "DO228049", "DO228042", "DO228041",…
## $ tobacco_smoking_history_indicator <chr> "Current reformed smoker for <= 15 …
## $ donor_age_at_diagnosis            <dbl> 48, 44, 49, 50, 47, 48, 47, 43, 45,…

#filter. I want to see if alcohol history will have any influence on the mortality of prostate cancer patients. There are too many “don’t know/not sure” on alcohol history in this case so we can’t really tell the impact.

finaldataset%>%filter(donor_vital_status=="alive",alcohol_history=="yes")

## # A tibble: 35 x 22
##    icgc_donor_id project_code.x submitted_donor… donor_sex donor_vital_sta…
##    <chr>         <chr>          <chr>            <chr>     <chr>           
##  1 DO228049      EOPC-DE        EOPC-113         male      alive           
##  2 DO228043      EOPC-DE        EOPC-107         male      alive           
##  3 DO228047      EOPC-DE        EOPC-111         male      alive           
##  4 DO228050      EOPC-DE        EOPC-114         male      alive           
##  5 DO228053      EOPC-DE        EOPC-117         male      alive           
##  6 DO228054      EOPC-DE        EOPC-118         male      alive           
##  7 DO228063      EOPC-DE        EOPC-132         male      alive           
##  8 DO228082      EOPC-DE        EOPC-159         male      alive           
##  9 DO228084      EOPC-DE        EOPC-161         male      alive           
## 10 DO228085      EOPC-DE        EOPC-162         male      alive           
## # … with 25 more rows, and 17 more variables:
## #   disease_status_last_followup <chr>, donor_age_at_diagnosis <dbl>,
## #   donor_age_at_enrollment <dbl>, donor_age_at_last_followup <dbl>,
## #   donor_diagnosis_icd10 <chr>,
## #   donor_tumour_staging_system_at_diagnosis <chr>,
## #   donor_tumour_stage_at_diagnosis <chr>, donor_survival_time <dbl>,
## #   donor_interval_of_last_followup <dbl>, prior_malignancy <chr>,
## #   tobacco_smoking_history_indicator <chr>, alcohol_history <chr>,
## #   alcohol_history_intensity <chr>, specimen_interval <dbl>,
## #   specimen_donor_treatment_type <chr>, `Normal - blood derived` <chr>,
## #   `Primary tumour - solid tissue` <chr>

finaldataset%>%filter(donor_vital_status=="alive",alcohol_history=="Don't know/Not sure")

## # A tibble: 135 x 22
##    icgc_donor_id project_code.x submitted_donor… donor_sex donor_vital_sta…
##    <chr>         <chr>          <chr>            <chr>     <chr>           
##  1 DO228042      EOPC-DE        EOPC-104         male      alive           
##  2 DO228041      EOPC-DE        EOPC-103         male      alive           
##  3 DO228044      EOPC-DE        EOPC-108         male      alive           
##  4 DO228046      EOPC-DE        EOPC-110         male      alive           
##  5 DO228048      EOPC-DE        EOPC-112         male      alive           
##  6 DO228057      EOPC-DE        EOPC-124         male      alive           
##  7 DO228056      EOPC-DE        EOPC-123         male      alive           
##  8 DO228059      EOPC-DE        EOPC-126         male      alive           
##  9 DO228058      EOPC-DE        EOPC-125         male      alive           
## 10 DO228060      EOPC-DE        EOPC-127         male      alive           
## # … with 125 more rows, and 17 more variables:
## #   disease_status_last_followup <chr>, donor_age_at_diagnosis <dbl>,
## #   donor_age_at_enrollment <dbl>, donor_age_at_last_followup <dbl>,
## #   donor_diagnosis_icd10 <chr>,
## #   donor_tumour_staging_system_at_diagnosis <chr>,
## #   donor_tumour_stage_at_diagnosis <chr>, donor_survival_time <dbl>,
## #   donor_interval_of_last_followup <dbl>, prior_malignancy <chr>,
## #   tobacco_smoking_history_indicator <chr>, alcohol_history <chr>,
## #   alcohol_history_intensity <chr>, specimen_interval <dbl>,
…
#group_by: it is hard to tell when the survival time are depicted in days, so I change it to year

finaldataset%>%group_by(donor_age_at_diagnosis)%>%summarise()

## `summarise()` ungrouping output (override with `.groups` argument)

## # A tibble: 23 x 1
##    donor_age_at_diagnosis
##                     <dbl>
##  1                     38
##  2                     40
##  3                     41
##  4                     42
##  5                     43
##  6                     44
##  7                     45
##  8                     46
##  9                     47
## 10                     48
## # … with 13 more rows
…
