Project 2
…
#Specificity (TNR): probability of using HPLC if it is actually used
488/513

## [1] 0.9512671

#Precision (PPV): the proportion of  HPLC usage that is actually used for the biospecimens
31/56

## [1] 0.5535714

cancerdata_final<-cancerdata_final%>%mutate(probs<-predict(fit_log,type="response"), prediction=ifelse(probs>.5,1,0))
classify<-cancerdata_final%>%transmute(probs,prediction,truth=y)
classify

## # A tibble: 589 x 3
##     probs prediction truth
##     <dbl>      <dbl> <dbl>
##  1 0.0450          0     1
##  2 0.161           0     1
##  3 0.161           0     1
##  4 0.0268          0     1
##  5 0.0268          0     1
##  6 0.161           0     1
##  7 0.161           0     1
##  8 0.161           0     1
##  9 0.0450          0     1
## 10 0.161           0     1
## # … with 579 more rows
…
#Generate an ROC curve (plot) and calculate AUC (either manually or with a package); interpret (5)

cancerdata_final<-cancerdata_final%>%mutate(probs<-predict(fit_log,type="response"), prediction=ifelse(probs>.5,1,0))
classify<-cancerdata_final%>%transmute(probs,prediction,truth=y)
classify

## # A tibble: 589 x 3
##     probs prediction truth
##     <dbl>      <dbl> <dbl>
##  1 0.0450          0     1
##  2 0.161           0     1
##  3 0.161           0     1
##  4 0.0268          0     1
##  5 0.0268          0     1
##  6 0.161           0     1
##  7 0.161           0     1
##  8 0.161           0     1
##  9 0.0450          0     1
## 10 0.161           0     1
## # … with 579 more rows
…
